{
  "aucafr03": {
    "mockCreateOpportunityServiceEnabled": "false",
    "mockGoogleMapsAPIServiceEnabled": "true",
    "mockGetCustomerAPIServiceEnabled": "true",
    "mockPedServiceEnabled": "true",
    "mockReturnPFSServiceEnabled": "true",
    "mockMqttServiceEnabled": "true",
    "mockExternalAPISignatureVerification": "true",
    "mockMarketingConsentApiEnabled": "true",
    "mockPFSServiceEnabled": "true",
    "mockPayboxServiceEnabled": "true",
    "mockIpToStoreInfoAPIServiceEnabled": "true",
    "mockSsoServiceEnabled": "true",
    "mockCarrierBookingServiceEnabled": "true",
    "mockDTMFServiceEnabled": "true",
    "mockContentAPIServiceEnabled": "true",
    "mockPaymentGatewayEnabled": "true",
    "mockSapStatusServiceEnabled": "true",
    "mockLoyaltyTransactionServiceEnabled": "true",
    "mockFraudServiceEnabled": "true",
    "mockDsvStockCheckServiceEnabled": "true",
    "mockGBGServiceEnabled": "true",
    "mockCustomerSearchEnabled": "true",
    "mockGiftCardServiceEnabled": "true",
    "mockReturnCarrierBookingServiceEnabled": "true",
    "mockVerifoneServiceEnabled": "true",
    "mockEnrollmentServiceEnabled": "true"
  },
  "aubquk03": {
    "mockCreateOpportunityServiceEnabled": "true",
    "mockGoogleMapsAPIServiceEnabled": "true",
    "mockGetCustomerAPIServiceEnabled": "true",
    "mockPedServiceEnabled": "true",
    "mockReturnPFSServiceEnabled": "true",
    "mockMqttServiceEnabled": "true",
    "mockExternalAPISignatureVerification": "true",
    "mockMarketingConsentApiEnabled": "true",
    "mockPFSServiceEnabled": "true",
    "mockPayboxServiceEnabled": "true",
    "mockIpToStoreInfoAPIServiceEnabled": "true",
    "mockSsoServiceEnabled": "true",
    "mockCarrierBookingServiceEnabled": "false",
    "mockDTMFServiceEnabled": "true",
    "mockContentAPIServiceEnabled": "true",
    "mockPaymentGatewayEnabled": "true",
    "mockSapStatusServiceEnabled": "true",
    "mockLoyaltyTransactionServiceEnabled": "true",
    "mockFraudServiceEnabled": "true",
    "mockDsvStockCheckServiceEnabled": "true",
    "mockGBGServiceEnabled": "true",
    "mockCustomerSearchEnabled": "true",
    "mockGiftCardServiceEnabled": "true",
    "mockReturnCarrierBookingServiceEnabled": "true",
    "mockVerifoneServiceEnabled": "true",
    "mockEnrollmentServiceEnabled": "true"
  }
}
